Préparation des intrants du programme
…
rm(a,b,manque, ajout_lf, vars, temp, ids)

4.3 Validation des longueurs

Je m’assure que les longueurs font du sens. Je ne regarde que les petites valeurs.

lf %>% group_by(longueur) %>% count %>% ungroup # le 7 cm est à part du reste...
## # A tibble: 138 x 2
##    longueur     n
##       <dbl> <int>
##  1        7     1
##  2       11     1
##  3       12     1
##  4       13     1
##  5       14     2
##  6       16     2
##  7       17     2
##  8       18     3
##  9       19    12
## 10       20     4
## # ... with 128 more rows
…
5 Observateurs en mer

J’ai des débarquements de morues occasionnés par des crevettiers, mais je n’ai pas de données d’échantillonneurs à quai où des morues ont été mesurées pour cet engin. Je dois donc faire appel aux données d’observateurs en mer.

catch %>% 
  filter(annee %in% my_year, engin_fr == "Chalut à crevettes") %>%
  group_by(annee) %>% summarise(deb = sum(catch, na.rm = T)) %>% 
  ungroup
## # A tibble: 28 x 2
##    annee   deb
##    <dbl> <dbl>
##  1  1993 83350
##  2  1994  4968
##  3  1995   169
##  4  1996    38
##  5  1997  1142
##  6  1998    30
##  7  1999    88
##  8  2000    55
##  9  2001    10
## 10  2002    10
## # ... with 18 more rows
…
b <- JOP1 %>% 
     group_by(capt_no, longueur) %>% 
     summarise(n_mes = sum(n_mes)) %>% 
     ungroup
dim(b) # 18744 obs et 3 var = moins de lignes que JOP1, car multiples échantillons par capt_no combinés.
## [1] 18744     3

ajout_lf <- full_join(a, b, by = "capt_no"); dim(ajout_lf) # 18744 obs et 11 var
## [1] 18744    11
ajout_lf
## # A tibble: 18,744 x 11
##    capt_no pds_ech opano wt_kept wt_dscrd pds_capt date       annee engin
##      <dbl>   <dbl> <chr>   <dbl>    <dbl>    <dbl> <date>     <dbl> <chr>
##  1     152     1.5 4Si        35       75      110 1991-04-19  1991 OTB2 
##  2     152     1.5 4Si        35       75      110 1991-04-19  1991 OTB2 
##  3     152     1.5 4Si        35       75      110 1991-04-19  1991 OTB2 
##  4     152     1.5 4Si        35       75      110 1991-04-19  1991 OTB2 
##  5     152     1.5 4Si        35       75      110 1991-04-19  1991 OTB2 
##  6     152     1.5 4Si        35       75      110 1991-04-19  1991 OTB2 
##  7     152     1.5 4Si        35       75      110 1991-04-19  1991 OTB2 
##  8     152     1.5 4Si        35       75      110 1991-04-19  1991 OTB2 
##  9     152     1.5 4Si        35       75      110 1991-04-19  1991 OTB2 
## 10     152     1.5 4Si        35       75      110 1991-04-19  1991 OTB2 
## # ... with 18,734 more rows, and 2 more variables: longueur <dbl>, n_mes <dbl>
…
obs$catch %>% 
  filter(esp_vis == 2211, esp_capt == 10) %>%  # visant la crevette nordique et ayant débarqué de la morue franche
  group_by(annee, engin) %>% 
  count %>% 
  ungroup %>% 
  pivot_wider(names_from = engin, values_from = n, values_fill = 0)
## # A tibble: 22 x 5
##    annee   GRL  GRL2  GRL1    TT
##    <dbl> <int> <int> <int> <int>
##  1  1999    29   360     0     0
##  2  2000    24   186     0     0
##  3  2001     0   221     1     0
##  4  2002    16    84     0     0
##  5  2003    15   363     2     0
##  6  2004     2   345     0     0
##  7  2005     0   204     0     0
##  8  2006    14   184     0     1
##  9  2007    63   145     4     0
## 10  2008    24   291     0     2
## # ... with 12 more rows
…
ajout_lf <- ajout_lf %>% 
            select(ech_id, annee, opano, mois, date, engin, engin_fr, engin_en, source, longueur, n_mes, pds_ech)
dim(ajout_lf) # 7640 obs et 12 var
## [1] 7640   12
n_distinct(ajout_lf$ech_id) # 1546 échantillons
## [1] 1546

Vérification des outliers de longueur.

ajout_lf %>% group_by(longueur) %>% count %>% ungroup # ok
## # A tibble: 78 x 2
##    longueur     n
##       <dbl> <int>
##  1        4     2
##  2        5     1
##  3        6     6
##  4        7     6
##  5        8    27
##  6        9    57
##  7       10   118
##  8       11   160
##  9       12   186
## 10       13   224
## # ... with 68 more rows
…
ziff %>% distinct_at(cle) %>% nrow # 341413
## [1] 341413
tmp <- ziff %>% 
       group_by_at(cle) %>% 
       summarise(esp_vis = unique(prespvis)) %>% 
       ungroup
dim(tmp) # 343222 = plus de lignes = des débarquements avaient > 1 espèce visée?
## [1] 343222      3

tmp %>% 
  group_by_at(cle) %>% 
  summarise(n = n(), esp_vis = paste(as.character(unique(esp_vis)), collapse = ",")) %>% 
  ungroup %>% 
  filter(n > 1)
## # A tibble: 1,768 x 4
##    nbpc   date_deb       n esp_vis
##    <chr>  <date>     <int> <chr>  
##  1 000000 1985-07-01     2 NA,100 
##  2 000000 1988-07-21     2 NA,100 
##  3 000000 1988-07-22     2 NA,100 
##  4 000264 1985-09-04     2 702,100
##  5 000361 2001-06-19     2 100,142
##  6 000361 2001-07-12     2 100,142
##  7 000361 2003-09-20     2 142,100
##  8 000446 1985-10-18     2 100,702
##  9 000567 1986-05-27     2 199,100
## 10 000601 1985-08-02     2 702,NA 
## # ... with 1,758 more rows
…
tmp <- dat_graph %>% 
       group_by(annee) %>% 
       summarise(deb_avec = sum(pds_vift[!is.na(prespvis)], na.rm = T),
                 deb_sans = sum(pds_vift[is.na(prespvis)], na.rm = T),
                 deb_tot = deb_avec + deb_sans,
                 perc = deb_sans / deb_tot * 100) %>% 
       ungroup
tmp
## # A tibble: 28 x 5
##    annee deb_avec deb_sans deb_tot  perc
##    <dbl>    <dbl>    <dbl>   <dbl> <dbl>
##  1  1993  17893.      559.  18452.  3.03
##  2  1994    261.      276.    537. 51.3 
##  3  1995     20.0     165.    185. 89.2 
##  4  1996     29.4     287.    317. 90.7 
##  5  1997    470.     4322.   4792. 90.2 
##  6  1998   2635.      594.   3229. 18.4 
##  7  1999   6472.      418.   6890.  6.07
##  8  2000   6573.      283.   6857.  4.13
##  9  2001   6773.      178.   6950.  2.56
## 10  2002   6254.      275.   6529.  4.22
## # ... with 18 more rows
…
