Calculs des captures à l’âge
…
## 3    39  2006 estival  4Vn      11
## 4    39  2009 estival  4Vn       8
# Je crois que ces stations ont été faites par inadvertance à l'extérieur de 4RST...
# Calcul des relations masse-longueur
rels <- tibble(annee = c(1993:2020, 1993:1994),
               type = c(rep("estival", length(1993:2020)), rep("hivernal", 2)),
               n_brute = NA, 
               n_net = NA, 
               intercept = NA, 
               slope = NA, 
               r_squared = NA, 
               source = NA) %>% 
        arrange(annee, type)
rels
## # A tibble: 30 x 8
##    annee type     n_brute n_net intercept slope r_squared source
##    <int> <chr>    <lgl>   <lgl> <lgl>     <lgl> <lgl>     <lgl> 
##  1  1993 estival  NA      NA    NA        NA    NA        NA    
##  2  1993 hivernal NA      NA    NA        NA    NA        NA    
##  3  1994 estival  NA      NA    NA        NA    NA        NA    
##  4  1994 hivernal NA      NA    NA        NA    NA        NA    
##  5  1995 estival  NA      NA    NA        NA    NA        NA    
##  6  1996 estival  NA      NA    NA        NA    NA        NA    
##  7  1997 estival  NA      NA    NA        NA    NA        NA    
##  8  1998 estival  NA      NA    NA        NA    NA        NA    
##  9  1999 estival  NA      NA    NA        NA    NA        NA    
## 10  2000 estival  NA      NA    NA        NA    NA        NA    
## # ... with 20 more rows
…
Maintenant, je vais créer un jeu lw que je vais pouvoir utiliser plus bas.

# fichier de base que je dois remplir
lw <- expand_grid(annee = my_year, mois = 1:12) %>% 
      mutate(type = ifelse(mois %in% c(1:3, 10:12), "hivernal", "estival")) %>% 
      arrange(annee, mois)
lw
## # A tibble: 336 x 3
##    annee  mois type    
##    <int> <int> <chr>   
##  1  1993     1 hivernal
##  2  1993     2 hivernal
##  3  1993     3 hivernal
##  4  1993     4 estival 
##  5  1993     5 estival 
##  6  1993     6 estival 
##  7  1993     7 estival 
##  8  1993     8 estival 
##  9  1993     9 estival 
## 10  1993    10 hivernal
## # ... with 326 more rows
…
lw[, c("n_brute.y", "n_net.y", "intercept.y", "slope.y", "r_squared.y", "source.y")] <- NULL # rendu inutile
names(lw) <- gsub("\\.x", "", names(lw))
cor <- which(with(lw, is.na(n_brute))); length(cor) # 0 ligne = tout est beau.
## [1] 0
rm(cor, rels)

dim(lw) # 336 obs et 9 var
## [1] 336   9
save(lw, file = dat_lw)

lw
## # A tibble: 336 x 9
##    annee  mois type     n_brute n_net intercept slope r_squared source 
##    <int> <int> <chr>      <int> <int>     <dbl> <dbl>     <dbl> <chr>  
##  1  1993     1 hivernal    1097  1000     -12.2  3.13     0.995 RH 1993
##  2  1993     2 hivernal    1097  1000     -12.2  3.13     0.995 RH 1993
##  3  1993     3 hivernal    1097  1000     -12.2  3.13     0.995 RH 1993
##  4  1993     4 estival      477   449     -12.0  3.10     0.99  RE 1993
##  5  1993     5 estival      477   449     -12.0  3.10     0.99  RE 1993
##  6  1993     6 estival      477   449     -12.0  3.10     0.99  RE 1993
##  7  1993     7 estival      477   449     -12.0  3.10     0.99  RE 1993
##  8  1993     8 estival      477   449     -12.0  3.10     0.99  RE 1993
##  9  1993     9 estival      477   449     -12.0  3.10     0.99  RE 1993
## 10  1993    10 hivernal    1097  1000     -12.2  3.13     0.995 RH 1993
## # ... with 326 more rows
…
load(dat_bio); dim(bio) # 105098 obs et 26 var
## [1] 105098     26

names(bio) <- recode(names(bio), "annee" = "year", "mois" = "month", "opano" = "region", "engin" = "gear", 
                     "longueur" = "length", "ech_id" = "sample.id")

bio_caa <- bio %>% 
           filter(year %in% my_year, outlier == F) %>% 
           select(year, month, region, gear, length, age, sample.id, source) %>% 
           as_tibble
dim(bio_caa) # 47294 obs et 8 var
## [1] 47294     8
bio_caa
## # A tibble: 47,294 x 8
##     year month region gear  length   age sample.id source
##    <int> <dbl> <chr>  <chr>  <dbl> <int>     <int> <chr> 
##  1  2011     7 4Sw    GNS       66     7     50722 quai  
##  2  1994     5 4Rc    LLS       43     5       346 quai  
##  3  2014     7 4Sw    GNS       54     7     56116 quai  
##  4  1995     8 4Sv    GN        71    11      1654 quai  
##  5  1995     8 4Sw    GN        38     4      1825 quai  
##  6  1995    10 4Sw    GN        43     5      2111 quai  
##  7  2019     8 4Si    GNS       61     7     64223 quai  
##  8  2001    10 4Rc    LLS       53     7     15705 quai  
##  9  1997     7 4Sw    GN        89    10      8296 quai  
## 10  2002     8 4Sw    GNS       51     6     16168 quai  
## # ... with 47,284 more rows
…
# Tableau pour le resdoc
temp <- this.lf %>% 
        group_by(length) %>%
        summarise(n_fl = sum(n)) %>% 
        ungroup %>% 
        left_join(., this.al %>% 
                     group_by(length) %>% 
                     summarise(n_al = n()) %>%
                     ungroup, by = "length") 

# Longueurs ne nécessitant pas alg
avec <- temp %>% filter(!is.na(n_al)); avec
## # A tibble: 49 x 3
##    length  n_fl  n_al
##     <dbl> <dbl> <int>
##  1     49     1     1
##  2     50     4     3
##  3     51    17     8
##  4     52    17     6
##  5     53    30     5
##  6     54    42     1
##  7     55    70     9
##  8     56    96     8
##  9     57    98     6
## 10     58   136     3
## # ... with 39 more rows
alk <- this.al %>% 
       group_by(length, age) %>% 
       count %>% 
       group_by(length) %>% 
       mutate(prop = n / sum(n)) %>% 
       ungroup %>% 
       pivot_wider(id_cols = "length", names_from = "age", names_prefix = "X", values_from = prop)
alk
## # A tibble: 49 x 12
##    length     X5     X4     X6     X7     X8     X9    X11   X10   X14   X12
##     <dbl>  <dbl>  <dbl>  <dbl>  <dbl>  <dbl>  <dbl>  <dbl> <dbl> <dbl> <dbl>
##  1     49  1     NA     NA     NA     NA     NA     NA        NA    NA    NA
##  2     50  0.667  0.333 NA     NA     NA     NA     NA        NA    NA    NA
##  3     51  0.25   0.125  0.375  0.25  NA     NA     NA        NA    NA    NA
##  4     52  0.333 NA      0.167  0.333  0.167 NA     NA        NA    NA    NA
##  5     53 NA     NA     NA      0.6    0.2    0.2   NA        NA    NA    NA
##  6     54 NA     NA     NA      1     NA     NA     NA        NA    NA    NA
##  7     55  0.111 NA      0.111  0.333 NA      0.444 NA        NA    NA    NA
##  8     56 NA     NA      0.125  0.625  0.125 NA      0.125    NA    NA    NA
##  9     57 NA     NA     NA      0.833  0.167 NA     NA        NA    NA    NA
## 10     58 NA     NA     NA      0.667 NA     NA      0.333    NA    NA    NA
## # ... with 39 more rows, and 1 more variable: X13 <dbl>
…
# Par année, ça ressemble à quoi?
temp <- left_join(catch_caa, ajout, by = c("year", "period", "region", "gear")) %>% 
        group_by(year) %>% 
        summarise(n_tot = n(),
                  n_strates = NROW(year[!is.na(nb_samples)]),
                  perc = n_strates / n_tot * 100) %>% 
        ungroup %>% 
        arrange(perc)
temp # 2003 est la pire année avec 1.61 %
## # A tibble: 28 x 4
##     year n_tot n_strates  perc
##    <dbl> <int>     <int> <dbl>
##  1  2003   124         2  1.61
##  2  2020   130         4  3.08
##  3  1994   165         7  4.24
##  4  2019   156         9  5.77
##  5  2011   161        11  6.83
##  6  2016   155        11  7.10
##  7  1998   171        13  7.60
##  8  2002   179        14  7.82
##  9  2009   178        15  8.43
## 10  2006   153        13  8.50
## # ... with 18 more rows
…
# Par année, ça ressemble à quoi?
temp <- left_join(catch_caa, ajout, by = c("year", "period", "region", "gear")) %>% 
        group_by(year) %>% 
        summarise(n_tot = n(),
                  n_strates = NROW(year[!is.na(nb_samples)]),
                  perc = n_strates / n_tot * 100) %>% 
        ungroup %>% 
        arrange(perc)
temp # 2003 est la pire année avec 0 %
## # A tibble: 28 x 4
##     year n_tot n_strates  perc
##    <dbl> <int>     <int> <dbl>
##  1  2003   124         0  0   
##  2  1994   165         5  3.03
##  3  2020   130         4  3.08
##  4  2019   156         8  5.13
##  5  2016   155         8  5.16
##  6  2011   161         9  5.59
##  7  2012   153         9  5.88
##  8  2013   158        10  6.33
##  9  2009   178        12  6.74
## 10  2010   172        12  6.98
## # ... with 18 more rows
…
